Project 1: 2018 Storm Related Deaths
…
## Observations: 2
## Variables: 2
## $ FATALITY_SEX <chr> "F", "M"
## $ age_median   <dbl> 53, 53

#gender sepcific deaths by state
storm_dam %>% 
  group_by(STATE, FATALITY_SEX) %>% 
  summarize(state_gender_deaths = n())

## # A tibble: 85 x 3
## # Groups:   STATE [49]
##    STATE       FATALITY_SEX state_gender_deaths
##    <chr>       <chr>                      <int>
##  1 ALABAMA     F                              1
##  2 ALABAMA     M                              4
##  3 ARIZONA     F                              1
##  4 ARIZONA     M                              5
##  5 ARKANSAS    M                              7
##  6 CALIFORNIA  F                              3
##  7 CALIFORNIA  M                             15
##  8 COLORADO    F                              1
##  9 COLORADO    M                              1
## 10 CONNECTICUT F                              1
## # ... with 75 more rows

#a look at the state repoted deaths: note this only takes into account deaths repoted in full to NOAA
storm_dam %>%
  group_by(STATE) %>% 
  summarize(events = n()) %>% arrange(desc(events))

## # A tibble: 49 x 2
##    STATE          events
##    <chr>           <int>
##  1 NEVADA            125
##  2 FLORIDA            71
##  3 NORTH CAROLINA     48
##  4 MISSOURI           27
##  5 TEXAS              27
##  6 WISCONSIN          26
##  7 CALIFORNIA         18
##  8 VIRGINIA           16
##  9 OREGON             13
## 10 KENTUCKY           12
## # ... with 39 more rows
…
#deaths by event type: note this only takes into account deaths repoted in full to NOAA
storm_dam %>% 
  group_by(EVENT_TYPE) %>% 
  summarize(deaths = n()) %>%  
  arrange(desc(deaths))

## # A tibble: 31 x 2
##    EVENT_TYPE        deaths
##    <chr>              <int>
##  1 Heat                  87
##  2 Flash Flood           54
##  3 Rip Current           53
##  4 Winter Weather        51
##  5 Excessive Heat        48
##  6 Hurricane             37
##  7 Thunderstorm Wind     36
##  8 Flood                 26
##  9 Cold/Wind Chill       18
## 10 Lightning             18
## # ... with 21 more rows

#cost by storm event
storm_dam %>% 
  group_by(EVENT_TYPE) %>% 
  summarize(sum_cost = round(max(DAMAGE_PROPERTY_NUM + DAMAGE_CROPS_NUM))) %>% 
  arrange(desc(sum_cost))

## # A tibble: 31 x 2
##    EVENT_TYPE        sum_cost
##    <chr>                <dbl>
##  1 Hurricane         80000000
##  2 Storm Surge/Tide  70000000
##  3 Flash Flood       10000000
##  4 Tornado            6500000
##  5 Coastal Flood       900000
##  6 Debris Flow         550000
##  7 Dust Storm          500000
##  8 High Wind           500000
##  9 Flood               375000
## 10 Thunderstorm Wind   250000
## # ... with 21 more rows

#deaths per event
storm_dam %>% 
  group_by(EVENT_ID) %>% 
  summarize(deaths = max(DEATHS_DIRECT+DEATHS_INDIRECT)) %>% 
  arrange(desc(deaths))  

## # A tibble: 359 x 2
##    EVENT_ID deaths
##       <dbl>  <dbl>
##  1   779162     18
##  2   773537     17
##  3   775196     17
##  4   789475     16
##  5   779120     10
##  6   773532      9
##  7   773530      8
##  8   773534      7
##  9   779141      7
## 10   773535      6
## # ... with 349 more rows
…
#state by deaths indirect and direct
storm_dam %>% group_by(EVENT_ID, STATE) %>% 
  summarize(deaths = max(DEATHS_DIRECT + DEATHS_INDIRECT), 
            cost = max(DAMAGE_PROPERTY_NUM + DAMAGE_CROPS_NUM)) %>% 
  ungroup() %>%group_by(STATE) %>% 
  summarize(cost = sum(cost), 
            deaths = sum(deaths))

## # A tibble: 49 x 3
##    STATE               cost deaths
##    <chr>              <dbl>  <dbl>
##  1 ALABAMA                0      5
##  2 ARIZONA            65000      6
##  3 ARKANSAS           50000      7
##  4 CALIFORNIA        250000     28
##  5 COLORADO          500000      2
##  6 CONNECTICUT       205000      2
##  7 E PACIFIC              0      1
##  8 FLORIDA        485000000     69
##  9 GEORGIA         80000000      3
## 10 GULF OF MEXICO         0      1
## # ... with 39 more rows
…
#even and gender summaries
storm_dam %>% group_by(EVENT_TYPE, FATALITY_SEX) %>% 
  summarize(age_mean = mean(FATALITY_AGE), 
            age_sd = sd(FATALITY_AGE), 
            deaths = n(), 
            age_se = age_sd/sqrt(deaths))

## # A tibble: 55 x 6
## # Groups:   EVENT_TYPE [31]
##    EVENT_TYPE      FATALITY_SEX age_mean age_sd deaths age_se
##    <chr>           <chr>           <dbl>  <dbl>  <int>  <dbl>
##  1 Avalanche       M                36.2   8.52      6   3.48
##  2 Blizzard        F                37   NaN         1 NaN   
##  3 Blizzard        M                62.5   2.12      2   1.50
##  4 Coastal Flood   M                46   NaN         1 NaN   
##  5 Cold/Wind Chill F                65.1  15.6       7   5.91
##  6 Cold/Wind Chill M                46    16.6      11   5.01
##  7 Debris Flow     F                62.5   4.95      2   3.50
##  8 Debris Flow     M                68   NaN         1 NaN   
##  9 Dense Fog       F                53   NaN         1 NaN   
## 10 Dense Fog       M                36.4  24.9       5  11.2 
## # ... with 45 more rows
…
#taking a peak at the PCA 1 data high scoring cluster 
peak <- pca %>% subset(Comp.1 > 2.5) 
peak <- storm_dam %>% filter(FATALITY_ID %in% rownames(peak))
peak

## # A tibble: 36 x 39
##    FAT_YEARMONTH FAT_DAY FAT_TIME FATALITY_ID EVENT_ID FATALITY_TYPE
##            <dbl>   <dbl>    <dbl>       <dbl>    <dbl> <chr>        
##  1        201810      10        0       36701   790424 D            
##  2        201810      10        0       36702   790424 D            
##  3        201810      10        0       36703   790424 D            
##  4        201810      10        0       36704   790424 D            
##  5        201810      10        0       36705   790424 D            
##  6        201810      10        0       36706   790424 D            
##  7        201810      10        0       36723   789475 I            
##  8        201810      10        0       36724   789475 I            
##  9        201810      10        0       36725   789475 I            
## 10        201810      10        0       36726   789475 I            
## # ... with 26 more rows, and 33 more variables: FATALITY_DATE <chr>,
## #   FATALITY_AGE <dbl>, FATALITY_SEX <chr>, FATALITY_LOCATION <chr>,
## #   EVENT_YEARMONTH <dbl>, BEGIN_YEARMONTH <dbl>, BEGIN_DAY <dbl>,
## #   BEGIN_TIME <dbl>, END_YEARMONTH <dbl>, END_DAY <dbl>, END_TIME <dbl>,
## #   EPISODE_ID <dbl>, STATE <chr>, STATE_FIPS <dbl>, YEAR <dbl>,
## #   MONTH_NAME <chr>, EVENT_TYPE <chr>, CZ_TYPE <chr>, CZ_FIPS <dbl>,
## #   CZ_NAME <chr>, WFO <chr>, BEGIN_DATE_TIME <chr>, CZ_TIMEZONE <chr>,
## #   END_DATE_TIME <chr>, INJURIES_DIRECT <dbl>, INJURIES_INDIRECT <dbl>,
## #   DEATHS_DIRECT <dbl>, DEATHS_INDIRECT <dbl>, DAMAGE_PROPERTY <chr>,
## #   DAMAGE_CROPS <chr>, SOURCE <chr>, DAMAGE_PROPERTY_NUM <dbl>,
## #   DAMAGE_CROPS_NUM <dbl>

#taking a look at PCA 2 data high cluster 
peak <- pca %>% subset(Comp.2 > 2) 
peak <- storm_dam %>% filter(FATALITY_ID %in% rownames(peak))
peak

## # A tibble: 37 x 39
##    FAT_YEARMONTH FAT_DAY FAT_TIME FATALITY_ID EVENT_ID FATALITY_TYPE
##            <dbl>   <dbl>    <dbl>       <dbl>    <dbl> <chr>        
##  1        201807      25        0       35761   773537 I            
##  2        201807      28        0       35773   773537 D            
##  3        201807      24        0       35760   773537 D            
##  4        201807      25        0       35762   773537 I            
##  5        201807      26        0       35764   773537 D            
##  6        201807      26        0       35765   773537 D            
##  7        201807      26        0       35766   773537 D            
##  8        201807      28        0       35771   773537 D            
##  9        201807      28        0       35772   773537 D            
## 10        201807      25        0       35763   773537 D            
## # ... with 27 more rows, and 33 more variables: FATALITY_DATE <chr>,
## #   FATALITY_AGE <dbl>, FATALITY_SEX <chr>, FATALITY_LOCATION <chr>,
## #   EVENT_YEARMONTH <dbl>, BEGIN_YEARMONTH <dbl>, BEGIN_DAY <dbl>,
## #   BEGIN_TIME <dbl>, END_YEARMONTH <dbl>, END_DAY <dbl>, END_TIME <dbl>,
## #   EPISODE_ID <dbl>, STATE <chr>, STATE_FIPS <dbl>, YEAR <dbl>,
## #   MONTH_NAME <chr>, EVENT_TYPE <chr>, CZ_TYPE <chr>, CZ_FIPS <dbl>,
## #   CZ_NAME <chr>, WFO <chr>, BEGIN_DATE_TIME <chr>, CZ_TIMEZONE <chr>,
## #   END_DATE_TIME <chr>, INJURIES_DIRECT <dbl>, INJURIES_INDIRECT <dbl>,
## #   DEATHS_DIRECT <dbl>, DEATHS_INDIRECT <dbl>, DAMAGE_PROPERTY <chr>,
…
